1000
jo
jojo
0000
byo
343434
men
1990
vip
woman
jazzzzzzz
jazzzzzzzzzz
football
tv
AutoSender
User 1000has been updated.
10500
Private Messagekkkkkkkkkkkkkkkkk
1000
User 1000has been updated.
1000
User 1000has been updated.
10502
User 10502has been updated.
1002
User 1002has been updated.
